…
``` r
df_aggregate %>%
  filter(theme == "Scales and decision making agents")
```

    ## # A tibble: 1,056 × 6
    ##       yr theme                             subtheme  terms     total_words value
    ##    <dbl> <chr>                             <chr>     <chr>           <dbl> <dbl>
    ##  1  1975 Scales and decision making agents Community community        5304     0
    ##  2  1975 Scales and decision making agents Community cooperat…        3536     0
    ##  3  1975 Scales and decision making agents Community local            7072     0
    ##  4  1975 Scales and decision making agents Community network          3536     0
    ##  5  1975 Scales and decision making agents Community rural            1768     0
    ##  6  1975 Scales and decision making agents Community social           1768     1
    ##  7  1975 Scales and decision making agents Community urban            1768     0
    ##  8  1975 Scales and decision making agents Farm      farm             3536     0
    ##  9  1975 Scales and decision making agents Farm      farmer          21216     0
    ## 10  1975 Scales and decision making agents Farm      household        3536     0
    ## # … with 1,046 more rows
…
